{
    "/js/app.js": "/js/app.js",
    "/css/app.css": "/css/app.css",
    "/css/AdminLTE.min.css": "/css/AdminLTE.min.css",
    "/css/skin-blue.min.css": "/css/skin-blue.min.css",
    "/js/AdminLTE.min.js": "/js/AdminLTE.min.js"
}